pipeline_waves.vcd
$date
	Mon Apr 27 12:33:52 2026
$end
$version
	Icarus Verilog
$end
$timescale
	1ps
$end
$scope module tb_pipeline $end
$var reg 1 ! clk $end
$var reg 1 " rst $end
$scope module dut $end
$var wire 1 ! clk $end
$var wire 1 " rst $end
$var wire 32 # write_data_ex [31:0] $end
$var wire 1 $ stall_pc $end
$var wire 5 % rs2_id [4:0] $end
$var wire 5 & rs1_id [4:0] $end
$var wire 32 ' result_wb [31:0] $end
$var wire 1 ( reg_write_wb $end
$var wire 1 ) reg_write_mem $end
$var wire 1 * reg_write_id $end
$var wire 1 + reg_write_ex $end
$var wire 32 , read2_id [31:0] $end
$var wire 32 - read1_id [31:0] $end
$var wire 5 . rd_wb [4:0] $end
$var wire 5 / rd_mem [4:0] $end
$var wire 5 0 rd_id [4:0] $end
$var wire 5 1 rd_ex [4:0] $end
$var wire 32 2 pc_plus4_mem [31:0] $end
$var wire 32 3 pc_plus4_if [31:0] $end
$var wire 32 4 pc_plus4_id [31:0] $end
$var wire 32 5 pc_plus4_ex [31:0] $end
$var wire 32 6 pc_if [31:0] $end
$var wire 32 7 pc_id [31:0] $end
$var wire 1 8 mem_write_id $end
$var wire 1 9 mem_write_ex $end
$var wire 1 : mem_to_reg_mem $end
$var wire 1 ; mem_to_reg_id $end
$var wire 1 < mem_to_reg_ex $end
$var wire 32 = instr_if [31:0] $end
$var wire 32 > imm_id [31:0] $end
$var wire 2 ? forward_b [1:0] $end
$var wire 2 @ forward_a [1:0] $end
$var wire 1 A flush_if_id $end
$var wire 32 B branch_target_ex [31:0] $end
$var wire 1 C branch_taken_ex $end
$var wire 1 D branch_id $end
$var wire 1 E branch_detected $end
$var wire 1 F alu_src_id $end
$var wire 32 G alu_res_mem [31:0] $end
$var wire 32 H alu_res_ex [31:0] $end
$var wire 3 I alu_ctrl_id [2:0] $end
$scope module ex_stage $end
$var wire 1 C branch_taken $end
$var wire 1 ! clk $end
$var wire 1 " rst $end
$var wire 32 J src_b [31:0] $end
$var wire 32 K src_a [31:0] $end
$var wire 5 L rs2 [4:0] $end
$var wire 5 M rs1 [4:0] $end
$var wire 32 N result_wb [31:0] $end
$var wire 1 ( reg_write_wb $end
$var wire 1 ) reg_write_mem $end
$var wire 1 * reg_write_in $end
$var wire 32 O read2 [31:0] $end
$var wire 32 P read1 [31:0] $end
$var wire 5 Q rd_wb [4:0] $end
$var wire 5 R rd_mem [4:0] $end
$var wire 5 S rd_in [4:0] $end
$var wire 32 T pc_plus4_in [31:0] $end
$var wire 32 U pc_in [31:0] $end
$var wire 1 8 mem_write_in $end
$var wire 1 ; mem_to_reg_in $end
$var wire 32 V imm [31:0] $end
$var wire 2 W forward_b [1:0] $end
$var wire 2 X forward_a [1:0] $end
$var wire 32 Y branch_target [31:0] $end
$var wire 1 D branch_in $end
$var wire 1 Z alu_zero $end
$var wire 1 F alu_src_in $end
$var wire 32 [ alu_src_b [31:0] $end
$var wire 32 \ alu_res_mem [31:0] $end
$var wire 32 ] alu_out [31:0] $end
$var wire 3 ^ alu_ctrl_in [2:0] $end
$var reg 32 _ alu_result [31:0] $end
$var reg 1 < mem_to_reg_out $end
$var reg 1 9 mem_write_out $end
$var reg 32 ` pc_plus4_out [31:0] $end
$var reg 5 a rd_out [4:0] $end
$var reg 1 + reg_write_out $end
$var reg 32 b write_data_out [31:0] $end
$scope module alu $end
$var wire 32 c src_a [31:0] $end
$var wire 32 d src_b [31:0] $end
$var wire 3 e alu_control [2:0] $end
$var reg 32 f result [31:0] $end
$var reg 1 Z zero_flag $end
$upscope $end
$upscope $end
$scope module hu $end
$var wire 1 " rst $end
$var wire 5 g rs2_ex [4:0] $end
$var wire 5 h rs1_ex [4:0] $end
$var wire 1 ( reg_write_wb $end
$var wire 1 ) reg_write_mem $end
$var wire 5 i rd_wb [4:0] $end
$var wire 5 j rd_mem [4:0] $end
$var wire 1 E branch_id $end
$var reg 1 A flush_if_id $end
$var reg 2 k forward_a_ex [1:0] $end
$var reg 2 l forward_b_ex [1:0] $end
$var reg 1 $ stall_pc $end
$upscope $end
$scope module id_stage $end
$var wire 1 ! clk $end
$var wire 1 A flush $end
$var wire 1 " rst $end
$var wire 32 m write_data_wb [31:0] $end
$var wire 5 n write_addr_wb [4:0] $end
$var wire 1 ( reg_write_wb $end
$var wire 1 o reg_write $end
$var wire 32 p read2 [31:0] $end
$var wire 32 q read1 [31:0] $end
$var wire 32 r pc_plus4_in [31:0] $end
$var wire 32 s pc_in [31:0] $end
$var wire 1 t mem_write $end
$var wire 1 u mem_to_reg $end
$var wire 32 v instr_in [31:0] $end
$var wire 2 w imm_src [1:0] $end
$var wire 32 x imm [31:0] $end
$var wire 1 y branch_comp_out $end
$var wire 1 z branch $end
$var wire 1 { alu_src $end
$var wire 3 | alu_ctrl [2:0] $end
$var reg 3 } alu_ctrl_ex [2:0] $end
$var reg 1 F alu_src_ex $end
$var reg 1 E branch_detected $end
$var reg 1 D branch_ex $end
$var reg 32 ~ imm_ex [31:0] $end
$var reg 1 ; mem_to_reg_ex $end
$var reg 1 8 mem_write_ex $end
$var reg 32 !" pc_ex [31:0] $end
$var reg 32 "" pc_plus4_ex [31:0] $end
$var reg 5 #" rd_ex [4:0] $end
$var reg 32 $" read1_ex [31:0] $end
$var reg 32 %" read2_ex [31:0] $end
$var reg 1 * reg_write_ex $end
$var reg 5 &" rs1_ex [4:0] $end
$var reg 5 '" rs2_ex [4:0] $end
$scope module bc $end
$var wire 3 (" funct3 [2:0] $end
$var wire 32 )" reg_b [31:0] $end
$var wire 32 *" reg_a [31:0] $end
$var wire 1 +" ltu $end
$var wire 1 ," lt $end
$var wire 1 -" eq $end
$var wire 1 y branch_taken $end
$upscope $end
$scope module ctrl $end
$var wire 3 ." funct3 [2:0] $end
$var wire 7 /" funct7 [6:0] $end
$var wire 7 0" opcode [6:0] $end
$var wire 1 o reg_write $end
$var wire 1 t mem_write $end
$var wire 1 u mem_to_reg $end
$var wire 1 z branch $end
$var wire 1 { alu_src $end
$var wire 2 1" alu_op [1:0] $end
$var wire 3 2" alu_control [2:0] $end
$scope module alu_dec $end
$var wire 3 3" funct3 [2:0] $end
$var wire 7 4" funct7 [6:0] $end
$var wire 2 5" alu_op [1:0] $end
$var reg 3 6" alu_control [2:0] $end
$upscope $end
$scope module main_dec $end
$var wire 7 7" opcode [6:0] $end
$var reg 2 8" alu_op [1:0] $end
$var reg 1 { alu_src $end
$var reg 1 z branch $end
$var reg 1 u mem_to_reg $end
$var reg 1 t mem_write $end
$var reg 1 o reg_write $end
$upscope $end
$upscope $end
$scope module rf $end
$var wire 1 ! clk $end
$var wire 5 9" read_addr1 [4:0] $end
$var wire 5 :" read_addr2 [4:0] $end
$var wire 1 " rst $end
$var wire 1 ( write_en $end
$var wire 32 ;" write_data [31:0] $end
$var wire 5 <" write_addr [4:0] $end
$var reg 32 =" read_data1 [31:0] $end
$var reg 32 >" read_data2 [31:0] $end
$var integer 32 ?" i [31:0] $end
$upscope $end
$scope module se $end
$var wire 2 @" imm_src [1:0] $end
$var wire 32 A" instr [31:0] $end
$var reg 32 B" imm_ext [31:0] $end
$upscope $end
$upscope $end
$scope module if_stage $end
$var wire 1 C branch_taken $end
$var wire 32 C" branch_target [31:0] $end
$var wire 1 ! clk $end
$var wire 1 A flush $end
$var wire 1 " rst $end
$var wire 1 $ stall $end
$var wire 32 D" pc_plus4 [31:0] $end
$var wire 32 E" pc_next [31:0] $end
$var wire 32 F" instr [31:0] $end
$var reg 32 G" instr_out [31:0] $end
$var reg 32 H" pc [31:0] $end
$var reg 32 I" pc_out [31:0] $end
$var reg 32 J" pc_plus4_out [31:0] $end
$var integer 32 K" i [31:0] $end
$upscope $end
$scope module mem_stage $end
$var wire 32 L" alu_result_in [31:0] $end
$var wire 1 ! clk $end
$var wire 1 < mem_to_reg_in $end
$var wire 1 9 mem_write_in $end
$var wire 32 M" pc_plus4_in [31:0] $end
$var wire 5 N" rd_in [4:0] $end
$var wire 1 + reg_write_in $end
$var wire 1 " rst $end
$var wire 32 O" write_data_in [31:0] $end
$var reg 32 P" alu_result_out [31:0] $end
$var reg 1 : mem_to_reg_out $end
$var reg 32 Q" pc_plus4_out [31:0] $end
$var reg 5 R" rd_out [4:0] $end
$var reg 1 ) reg_write_out $end
$var integer 32 S" i [31:0] $end
$upscope $end
$scope module wb_stage $end
$var wire 32 T" alu_result [31:0] $end
$var wire 1 ! clk $end
$var wire 1 : mem_to_reg_in $end
$var wire 32 U" pc_plus4 [31:0] $end
$var wire 5 V" rd_in [4:0] $end
$var wire 1 ) reg_write_in $end
$var wire 1 " rst $end
$var reg 5 W" rd_out [4:0] $end
$var reg 1 ( reg_write_out $end
$var reg 32 X" result_out [31:0] $end
$upscope $end
$upscope $end
$upscope $end
$enddefinitions $end
#0
$dumpvars
bx X"
bx W"
bx V"
bx U"
bx T"
b100000000 S"
bx R"
bx Q"
bx P"
bx O"
bx N"
bx M"
bx L"
b1000000 K"
bx J"
bx I"
bx H"
bx G"
bx F"
bx E"
bx D"
bx C"
b0 B"
bx A"
bx @"
b100000 ?"
b0 >"
b0 ="
bx <"
bx ;"
bx :"
bx 9"
bx 8"
bx 7"
bx 6"
bx 5"
bx 4"
bx 3"
bx 2"
bx 1"
bx 0"
bx /"
bx ."
1-"
0,"
0+"
b0 *"
b0 )"
bx ("
bx '"
bx &"
bx %"
bx $"
bx #"
bx ""
bx !"
bx ~
bx }
bx |
x{
xz
xy
b0 x
bx w
bx v
xu
xt
bx s
bx r
b0 q
b0 p
xo
bx n
bx m
b0 l
b0 k
bx j
bx i
bx h
bx g
bx f
bx e
bx d
bx c
bx b
bx a
bx `
bx _
bx ^
bx ]
bx \
bx [
xZ
bx Y
b0 X
b0 W
bx V
bx U
bx T
bx S
bx R
bx Q
bx P
bx O
bx N
bx M
bx L
bx K
bx J
bx I
bx H
bx G
xF
xE
xD
xC
bx B
0A
b0 @
b0 ?
bx >
bx =
x<
x;
x:
x9
x8
bx 7
bx 6
bx 5
bx 4
bx 3
bx 2
bx 1
bx 0
bx /
bx .
bx -
bx ,
x+
x*
x)
x(
bx '
bx &
bx %
0$
bx #
1"
0!
$end
#10000
1Z
b0 ]
b0 f
b0 [
b0 d
b0 w
b0 @"
1y
b0 |
b0 2"
b0 6"
b0 1"
b0 5"
b0 8"
0z
0u
0t
0{
0o
b1000000000001010010011 F"
b0 J
b0 K
b0 c
b0 ("
b0 :"
b0 9"
b0 /"
b0 4"
b0 ."
b0 3"
b0 0"
b0 7"
b100 E"
0C
b0 3
b0 r
b0 J"
b0 =
b0 v
b0 A"
b0 G"
b0 6
b0 s
b0 I"
b100 D"
b0 H"
0E
b0 4
b0 T
b0 ""
b0 B
b0 Y
b0 C"
b0 7
b0 U
b0 !"
b0 %
b0 L
b0 g
b0 '"
b0 &
b0 M
b0 h
b0 &"
b0 0
b0 S
b0 #"
b0 >
b0 V
b0 ~
b0 ,
b0 O
b0 %"
b0 -
b0 P
b0 $"
b0 I
b0 ^
b0 e
b0 }
0D
0;
08
0F
0*
b0 5
b0 `
b0 M"
b0 #
b0 b
b0 O"
b0 H
b0 _
b0 L"
b0 1
b0 a
b0 N"
0<
09
0+
b0 2
b0 Q"
b0 U"
b0 G
b0 \
b0 P"
b0 T"
b0 /
b0 R
b0 j
b0 R"
b0 V"
0:
0)
b0 '
b0 N
b0 m
b0 ;"
b0 X"
b0 .
b0 Q
b0 i
b0 n
b0 <"
b0 W"
0(
b100000 ?"
1!
#20000
0!
#30000
b100000 ?"
1!
#40000
0!
0"
#50000
b10 1"
b10 5"
b10 8"
1{
1o
b1000000000001100010011 F"
b10 :"
b10011 0"
b10011 7"
b10 x
b10 B"
b1000 E"
b100 3
b100 r
b100 J"
b1000000000001010010011 =
b1000000000001010010011 v
b1000000000001010010011 A"
b1000000000001010010011 G"
b1000 D"
b100 H"
1!
#60000
0!
#70000
0Z
b10 ]
b10 f
b11000101000001110110011 F"
b10 [
b10 d
b1100 E"
b100 4
b100 T
b100 ""
b10 %
b10 L
b10 g
b10 '"
b101 0
b101 S
b101 #"
b10 B
b10 Y
b10 C"
b10 >
b10 V
b10 ~
1F
1*
b1000 3
b1000 r
b1000 J"
b1000000000001100010011 =
b1000000000001100010011 v
b1000000000001100010011 A"
b1000000000001100010011 G"
b100 6
b100 s
b100 I"
b1100 D"
b1000 H"
1!
#80000
0!
#90000
0{
b0 F"
b110 :"
b101 9"
b110011 0"
b110011 7"
b110 x
b110 B"
b10000 E"
b1100 3
b1100 r
b1100 J"
b11000101000001110110011 =
b11000101000001110110011 v
b11000101000001110110011 A"
b11000101000001110110011 G"
b1000 6
b1000 s
b1000 I"
b10000 D"
b1100 H"
b1000 4
b1000 T
b1000 ""
b110 B
b110 Y
b110 C"
b100 7
b100 U
b100 !"
b110 0
b110 S
b110 #"
b100 5
b100 `
b100 M"
b10 H
b10 _
b10 L"
b101 1
b101 a
b101 N"
1+
1!
#100000
0!
#110000
1Z
b0 ]
b0 f
b0 1"
b0 5"
b0 8"
0o
b0 [
b0 d
b0 :"
b0 9"
b0 0"
b0 7"
b0 x
b0 B"
b10100 E"
b100 2
b100 Q"
b100 U"
b10 G
b10 \
b10 P"
b10 T"
b101 /
b101 R
b101 j
b101 R"
b101 V"
1)
b1000 5
b1000 `
b1000 M"
b110 1
b110 a
b110 N"
b1100 4
b1100 T
b1100 ""
b1000 7
b1000 U
b1000 !"
b110 %
b110 L
b110 g
b110 '"
b101 &
b101 M
b101 h
b101 &"
b111 0
b111 S
b111 #"
b1110 B
b1110 Y
b1110 C"
b110 >
b110 V
b110 ~
0F
b10000 3
b10000 r
b10000 J"
b0 =
b0 v
b0 A"
b0 G"
b1100 6
b1100 s
b1100 I"
b10100 D"
b10000 H"
1!
#120000
0!
#130000
b11000 E"
b10100 3
b10100 r
b10100 J"
b10000 6
b10000 s
b10000 I"
b11000 D"
b10100 H"
b10000 4
b10000 T
b10000 ""
b1100 7
b1100 U
b1100 !"
b0 %
b0 L
b0 g
b0 '"
b0 &
b0 M
b0 h
b0 &"
b0 0
b0 S
b0 #"
b1100 B
b1100 Y
b1100 C"
b0 >
b0 V
b0 ~
0*
b1100 5
b1100 `
b1100 M"
b0 H
b0 _
b0 L"
b111 1
b111 a
b111 N"
b1000 2
b1000 Q"
b1000 U"
b110 /
b110 R
b110 j
b110 R"
b110 V"
b10 '
b10 N
b10 m
b10 ;"
b10 X"
b101 .
b101 Q
b101 i
b101 n
b101 <"
b101 W"
1(
1!
#140000
0!
#150000
b11100 E"
b110 .
b110 Q
b110 i
b110 n
b110 <"
b110 W"
b1100 2
b1100 Q"
b1100 U"
b0 G
b0 \
b0 P"
b0 T"
b111 /
b111 R
b111 j
b111 R"
b111 V"
b10000 5
b10000 `
b10000 M"
b0 1
b0 a
b0 N"
0+
b10100 4
b10100 T
b10100 ""
b10000 B
b10000 Y
b10000 C"
b10000 7
b10000 U
b10000 !"
b11000 3
b11000 r
b11000 J"
b10100 6
b10100 s
b10100 I"
b11100 D"
b11000 H"
1!
#160000
0!
#170000
b100000 E"
b11100 3
b11100 r
b11100 J"
b11000 6
b11000 s
b11000 I"
b100000 D"
b11100 H"
b11000 4
b11000 T
b11000 ""
b10100 B
b10100 Y
b10100 C"
b10100 7
b10100 U
b10100 !"
b10100 5
b10100 `
b10100 M"
b10000 2
b10000 Q"
b10000 U"
b0 /
b0 R
b0 j
b0 R"
b0 V"
0)
b0 '
b0 N
b0 m
b0 ;"
b0 X"
b111 .
b111 Q
b111 i
b111 n
b111 <"
b111 W"
1!
#180000
0!
#190000
b100100 E"
b0 .
b0 Q
b0 i
b0 n
b0 <"
b0 W"
0(
b10100 2
b10100 Q"
b10100 U"
b11000 5
b11000 `
b11000 M"
b11100 4
b11100 T
b11100 ""
b11000 B
b11000 Y
b11000 C"
b11000 7
b11000 U
b11000 !"
b100000 3
b100000 r
b100000 J"
b11100 6
b11100 s
b11100 I"
b100100 D"
b100000 H"
1!
#200000
0!
#210000
b101000 E"
b100100 3
b100100 r
b100100 J"
b100000 6
b100000 s
b100000 I"
b101000 D"
b100100 H"
b100000 4
b100000 T
b100000 ""
b11100 B
b11100 Y
b11100 C"
b11100 7
b11100 U
b11100 !"
b11100 5
b11100 `
b11100 M"
b11000 2
b11000 Q"
b11000 U"
1!
#220000
0!
#230000
b101100 E"
b11100 2
b11100 Q"
b11100 U"
b100000 5
b100000 `
b100000 M"
b100100 4
b100100 T
b100100 ""
b100000 B
b100000 Y
b100000 C"
b100000 7
b100000 U
b100000 !"
b101000 3
b101000 r
b101000 J"
b100100 6
b100100 s
b100100 I"
b101100 D"
b101000 H"
1!
#240000
0!
#250000
b110000 E"
b101100 3
b101100 r
b101100 J"
b101000 6
b101000 s
b101000 I"
b110000 D"
b101100 H"
b101000 4
b101000 T
b101000 ""
b100100 B
b100100 Y
b100100 C"
b100100 7
b100100 U
b100100 !"
b100100 5
b100100 `
b100100 M"
b100000 2
b100000 Q"
b100000 U"
1!
#260000
0!
#270000
b110100 E"
b100100 2
b100100 Q"
b100100 U"
b101000 5
b101000 `
b101000 M"
b101100 4
b101100 T
b101100 ""
b101000 B
b101000 Y
b101000 C"
b101000 7
b101000 U
b101000 !"
b110000 3
b110000 r
b110000 J"
b101100 6
b101100 s
b101100 I"
b110100 D"
b110000 H"
1!
#280000
0!
#290000
b111000 E"
b110100 3
b110100 r
b110100 J"
b110000 6
b110000 s
b110000 I"
b111000 D"
b110100 H"
b110000 4
b110000 T
b110000 ""
b101100 B
b101100 Y
b101100 C"
b101100 7
b101100 U
b101100 !"
b101100 5
b101100 `
b101100 M"
b101000 2
b101000 Q"
b101000 U"
1!
#300000
0!
#310000
b111100 E"
b101100 2
b101100 Q"
b101100 U"
b110000 5
b110000 `
b110000 M"
b110100 4
b110100 T
b110100 ""
b110000 B
b110000 Y
b110000 C"
b110000 7
b110000 U
b110000 !"
b111000 3
b111000 r
b111000 J"
b110100 6
b110100 s
b110100 I"
b111100 D"
b111000 H"
1!
#320000
0!
#330000
b1000000 E"
b111100 3
b111100 r
b111100 J"
b111000 6
b111000 s
b111000 I"
b1000000 D"
b111100 H"
b111000 4
b111000 T
b111000 ""
b110100 B
b110100 Y
b110100 C"
b110100 7
b110100 U
b110100 !"
b110100 5
b110100 `
b110100 M"
b110000 2
b110000 Q"
b110000 U"
1!
#340000
0!
#350000
b1000100 E"
b110100 2
b110100 Q"
b110100 U"
b111000 5
b111000 `
b111000 M"
b111100 4
b111100 T
b111100 ""
b111000 B
b111000 Y
b111000 C"
b111000 7
b111000 U
b111000 !"
b1000000 3
b1000000 r
b1000000 J"
b111100 6
b111100 s
b111100 I"
b1000100 D"
b1000000 H"
1!
#360000
0!
#370000
b1001000 E"
b1000100 3
b1000100 r
b1000100 J"
b1000000 6
b1000000 s
b1000000 I"
b1001000 D"
b1000100 H"
b1000000 4
b1000000 T
b1000000 ""
b111100 B
b111100 Y
b111100 C"
b111100 7
b111100 U
b111100 !"
b111100 5
b111100 `
b111100 M"
b111000 2
b111000 Q"
b111000 U"
1!
#380000
0!
#390000
b1001100 E"
b111100 2
b111100 Q"
b111100 U"
b1000000 5
b1000000 `
b1000000 M"
b1000100 4
b1000100 T
b1000100 ""
b1000000 B
b1000000 Y
b1000000 C"
b1000000 7
b1000000 U
b1000000 !"
b1001000 3
b1001000 r
b1001000 J"
b1000100 6
b1000100 s
b1000100 I"
b1001100 D"
b1001000 H"
1!
#400000
0!
#410000
b1010000 E"
b1001100 3
b1001100 r
b1001100 J"
b1001000 6
b1001000 s
b1001000 I"
b1010000 D"
b1001100 H"
b1001000 4
b1001000 T
b1001000 ""
b1000100 B
b1000100 Y
b1000100 C"
b1000100 7
b1000100 U
b1000100 !"
b1000100 5
b1000100 `
b1000100 M"
b1000000 2
b1000000 Q"
b1000000 U"
1!
#420000
0!
#430000
b1010100 E"
b1000100 2
b1000100 Q"
b1000100 U"
b1001000 5
b1001000 `
b1001000 M"
b1001100 4
b1001100 T
b1001100 ""
b1001000 B
b1001000 Y
b1001000 C"
b1001000 7
b1001000 U
b1001000 !"
b1010000 3
b1010000 r
b1010000 J"
b1001100 6
b1001100 s
b1001100 I"
b1010100 D"
b1010000 H"
1!
#440000
0!
#450000
b1011000 E"
b1010100 3
b1010100 r
b1010100 J"
b1010000 6
b1010000 s
b1010000 I"
b1011000 D"
b1010100 H"
b1010000 4
b1010000 T
b1010000 ""
b1001100 B
b1001100 Y
b1001100 C"
b1001100 7
b1001100 U
b1001100 !"
b1001100 5
b1001100 `
b1001100 M"
b1001000 2
b1001000 Q"
b1001000 U"
1!
#460000
0!
#470000
b1011100 E"
b1001100 2
b1001100 Q"
b1001100 U"
b1010000 5
b1010000 `
b1010000 M"
b1010100 4
b1010100 T
b1010100 ""
b1010000 B
b1010000 Y
b1010000 C"
b1010000 7
b1010000 U
b1010000 !"
b1011000 3
b1011000 r
b1011000 J"
b1010100 6
b1010100 s
b1010100 I"
b1011100 D"
b1011000 H"
1!
#480000
0!
#490000
b1100000 E"
b1011100 3
b1011100 r
b1011100 J"
b1011000 6
b1011000 s
b1011000 I"
b1100000 D"
b1011100 H"
b1011000 4
b1011000 T
b1011000 ""
b1010100 B
b1010100 Y
b1010100 C"
b1010100 7
b1010100 U
b1010100 !"
b1010100 5
b1010100 `
b1010100 M"
b1010000 2
b1010000 Q"
b1010000 U"
1!
#500000
0!
#510000
b1100100 E"
b1010100 2
b1010100 Q"
b1010100 U"
b1011000 5
b1011000 `
b1011000 M"
b1011100 4
b1011100 T
b1011100 ""
b1011000 B
b1011000 Y
b1011000 C"
b1011000 7
b1011000 U
b1011000 !"
b1100000 3
b1100000 r
b1100000 J"
b1011100 6
b1011100 s
b1011100 I"
b1100100 D"
b1100000 H"
1!
#520000
0!
#530000
b1101000 E"
b1100100 3
b1100100 r
b1100100 J"
b1100000 6
b1100000 s
b1100000 I"
b1101000 D"
b1100100 H"
b1100000 4
b1100000 T
b1100000 ""
b1011100 B
b1011100 Y
b1011100 C"
b1011100 7
b1011100 U
b1011100 !"
b1011100 5
b1011100 `
b1011100 M"
b1011000 2
b1011000 Q"
b1011000 U"
1!
